Diversity calculation
…
[1] "/Users/mattocci/Dropbox/5-Tools/ghq/github.com/mattocci27/phy-fun-div/data/samp.csv"

d <- read_csv(here::here("data/samp.csv"))

but don’t do this:

d <- read_csv("/Users/mattocci/Dropbox/5-Tools/ghq/github.com/mattocci27/phy-fun-div/data/samp.csv")

because absolute paths will be different on different computers (lack of reproducibility). It is also uncomfortable to make file system structure public (security risk).

Now let’s look at the community data.

d

# A tibble: 40 × 3
   Site  Species                abund
   <chr> <chr>                  <dbl>
 1 Site1 Illicium_macranthum        1
 2 Site1 Manglietia_insignis        0
 3 Site1 Michelia_floribunda        0
 4 Site1 Beilschmiedia_robusta      0
 5 Site1 Neolitsea_chuii            0
 6 Site1 Lindera_thomsonii          0
 7 Site1 Actinodaphne_forrestii     0
 8 Site1 Machilus_yunnanensis       0
 9 Site2 Illicium_macranthum        1
10 Site2 Manglietia_insignis        2
# ℹ 30 more rows
…
trait <- read_csv("data/dummy_trait.csv")

DT::datatable(trait)

3.4 Check how traits look like first

trait_long <- trait |>
  pivot_longer(lma:sm, names_to = "trait")

trait_long

# A tibble: 616 × 3
   sp                     trait   value
   <chr>                  <chr>   <dbl>
 1 Acer_campbellii        lma    234.  
 2 Acer_campbellii        ll       6.05
 3 Acer_campbellii        a_mass  69.6 
 4 Acer_campbellii        r_mass   4.39
 5 Acer_campbellii        n_mass   1.37
 6 Acer_campbellii        p_mass   0.06
 7 Acer_campbellii        wd       0.5 
 8 Acer_campbellii        sm       1.12
 9 Actinodaphne_forrestii lma    138.  
10 Actinodaphne_forrestii ll       6.63
# ℹ 606 more rows
…
